<?xml version="1.0" encoding="UTF-8" standalone="no"?>
<svg
   width="512"
   height="512"
   viewBox="0 0 512 512"
   version="1.1"
   xml:space="preserve"
   style="clip-rule:evenodd;fill-rule:evenodd;stroke-linejoin:round;stroke-miterlimit:1.41421"
   id="svg40"
   sodipodi:docname="Meshroom.svg"
   inkscape:version="1.3 (0e150ed6c4, 2023-07-21)"
   xmlns:inkscape="http://www.inkscape.org/namespaces/inkscape"
   xmlns:sodipodi="http://sodipodi.sourceforge.net/DTD/sodipodi-0.dtd"
   xmlns="http://www.w3.org/2000/svg"
   xmlns:svg="http://www.w3.org/2000/svg"
   xmlns:rdf="http://www.w3.org/1999/02/22-rdf-syntax-ns#"
   xmlns:cc="http://creativecommons.org/ns#"
   xmlns:dc="http://purl.org/dc/elements/1.1/"><metadata
   id="metadata46"><rdf:RDF><cc:Work
       rdf:about=""><dc:format>image/svg+xml</dc:format><dc:type
         rdf:resource="http://purl.org/dc/dcmitype/StillImage" /><dc:title /></cc:Work></rdf:RDF></metadata><defs
   id="defs44" /><sodipodi:namedview
   pagecolor="#ffffff"
   bordercolor="#666666"
   borderopacity="1"
   objecttolerance="10"
   gridtolerance="10"
   guidetolerance="10"
   inkscape:pageopacity="0"
   inkscape:pageshadow="2"
   inkscape:window-width="1440"
   inkscape:window-height="863"
   id="namedview42"
   showgrid="false"
   inkscape:zoom="0.99319878"
   inkscape:cx="267.31809"
   inkscape:cy="270.33863"
   inkscape:window-x="0"
   inkscape:window-y="0"
   inkscape:window-maximized="1"
   inkscape:current-layer="g36"
   inkscape:document-rotation="0"
   inkscape:showpageshadow="2"
   inkscape:pagecheckerboard="0"
   inkscape:deskcolor="#d1d1d1" />&#10;    <g
   id="g38"
   transform="matrix(30.912707,0,0,30.912707,9.4921593,5.7720402)">&#10;        <path
   d="M 11.7,1.6 H 4.3 L 8,8 h 7.4 z"
   style="fill:#000000;fill-rule:nonzero;fill-opacity:0.30000001"
   id="path2" />&#10;        <path
   d="M 0.6,8 4.3,1.6 8,8 4.3,14.4 Z"
   style="fill:#000000;fill-rule:nonzero;fill-opacity:0.30000001"
   id="path4" />&#10;        <path
   d="M 0.6,8 H 8 l 3.7,6.4 H 4.3 Z"
   style="fill:#000000;fill-rule:nonzero;fill-opacity:0.30000001"
   id="path6" />&#10;        <path
   d="M 11.7,1.6 8,8 11.7,14.4 15.4,8 Z"
   style="fill:#000000;fill-rule:nonzero;fill-opacity:0.30000001"
   id="path8" />&#10;        <path
   d="M 14.1,10.2 12.2,7 l -1.1,2 1.8,3.2 z"
   style="fill:#000000;fill-rule:nonzero;fill-opacity:0.51704544"
   id="path10" />&#10;        <ellipse
   cx="12.5"
   cy="9.8999996"
   rx="0.2"
   ry="0.30000001"
   style="fill:#000000;fill-opacity:1"
   id="ellipse12" />&#10;        <g
   id="g36">&#10;            <circle
   cx="0.60000002"
   cy="8"
   r="0.60000002"
   style="fill:#000000;fill-opacity:1"
   id="circle14" />&#10;            <circle
   cx="8"
   cy="8"
   r="0.60000002"
   style="fill:#000000;fill-opacity:1"
   id="circle16" />&#10;            <circle
   cx="4.3000002"
   cy="14.4"
   r="0.60000002"
   style="fill:#000000;fill-opacity:1"
   id="circle18" />&#10;            <circle
   cx="11.7"
   cy="14.4"
   r="0.60000002"
   style="fill:#000000;fill-opacity:1"
   id="circle20" />&#10;            <circle
   cx="4.3000002"
   cy="1.6"
   r="0.60000002"
   style="fill:#000000;fill-opacity:1"
   id="circle22" />&#10;            <circle
   cx="11.7"
   cy="1.6"
   r="0.60000002"
   style="fill:#000000;fill-opacity:1"
   id="circle24" />&#10;            <circle
   cx="15.4"
   cy="8"
   r="0.60000002"
   style="fill:#000000;fill-opacity:1"
   id="circle26" />&#10;            <path
   d="M 8.1,8.2 H 0.3 L 4.2,1.4 H 12 Z M 1,7.8 h 6.9 l 3.5,-6 h -7 z"
   style="fill:#000000;fill-rule:nonzero;fill-opacity:1"
   id="path28" />&#10;            <path
   d="M 11.8,14.6 H 4.2 L 0.5,8.1 0.8,7.9 4.4,14.2 h 7.2 L 15.1,8 11.5,1.7 11.8,1.5 15.6,8 Z"
   style="fill:#000000;fill-rule:nonzero;fill-opacity:1"
   id="path30" />&#10;            <g
   transform="matrix(0.8654,-0.501,0.501,0.8654,-4.2828,6.4256)"
   id="g34">&#10;                <rect
   x="9.6000004"
   y="7.5"
   width="0.40000001"
   height="7.4000001"
   style="fill:#000000;fill-opacity:1"
   id="rect32" />&#10;            </g>&#10;        </g>&#10;    </g>&#10;</svg>
