<?xml version="1.0" encoding="UTF-8" standalone="no"?>
<svg
   width="32"
   height="32"
   version="1.1"
   viewBox="0 0 16.912 16.912"
   id="svg2"
   sodipodi:docname="Tenacity.svg"
   inkscape:version="1.3.1 (91b66b0783, 2023-11-16)"
   xmlns:inkscape="http://www.inkscape.org/namespaces/inkscape"
   xmlns:sodipodi="http://sodipodi.sourceforge.net/DTD/sodipodi-0.dtd"
   xmlns:xlink="http://www.w3.org/1999/xlink"
   xmlns="http://www.w3.org/2000/svg"
   xmlns:svg="http://www.w3.org/2000/svg"
   xmlns:rdf="http://www.w3.org/1999/02/22-rdf-syntax-ns#"
   xmlns:cc="http://creativecommons.org/ns#"
   xmlns:dc="http://purl.org/dc/elements/1.1/">
  <sodipodi:namedview
     id="namedview2"
     pagecolor="#ffffff"
     bordercolor="#000000"
     borderopacity="0.25"
     inkscape:showpageshadow="2"
     inkscape:pageopacity="0.0"
     inkscape:pagecheckerboard="0"
     inkscape:deskcolor="#d1d1d1"
     inkscape:zoom="19.21875"
     inkscape:cx="16"
     inkscape:cy="16"
     inkscape:window-width="1440"
     inkscape:window-height="863"
     inkscape:window-x="0"
     inkscape:window-y="0"
     inkscape:window-maximized="1"
     inkscape:current-layer="svg2" />
  <metadata
     id="metadata1">
    <rdf:RDF>
      <cc:Work
         rdf:about="">
        <dc:format>image/svg+xml</dc:format>
        <dc:type
           rdf:resource="http://purl.org/dc/dcmitype/StillImage" />
        <dc:title />
        <cc:license
           rdf:resource="http://creativecommons.org/licenses/by/4.0/" />
      </cc:Work>
      <cc:License
         rdf:about="http://creativecommons.org/licenses/by/4.0/">
        <cc:permits
           rdf:resource="http://creativecommons.org/ns#Reproduction" />
        <cc:permits
           rdf:resource="http://creativecommons.org/ns#Distribution" />
        <cc:requires
           rdf:resource="http://creativecommons.org/ns#Notice" />
        <cc:requires
           rdf:resource="http://creativecommons.org/ns#Attribution" />
        <cc:permits
           rdf:resource="http://creativecommons.org/ns#DerivativeWorks" />
      </cc:License>
    </rdf:RDF>
  </metadata>
  <defs
     id="defs2">
    <linearGradient
       id="a">
      <stop
         stop-color="#e93c17"
         offset="0"
         id="stop1" />
      <stop
         stop-color="#ca153e"
         offset="1"
         id="stop2" />
    </linearGradient>
    <linearGradient
       id="d"
       x1="16.912"
       x2="-2.5642e-7"
       y1=".000491"
       y2="16.912"
       gradientUnits="userSpaceOnUse"
       xlink:href="#a" />
    <linearGradient
       id="c"
       x1="16.912"
       x2=".5285"
       y2="16.912"
       gradientUnits="userSpaceOnUse"
       xlink:href="#a" />
    <linearGradient
       id="b"
       x1="32"
       x2="-4.8519e-7"
       y1=".00092904"
       y2="32.001"
       gradientTransform="matrix(.5285 0 0 .5285 -.069828 0)"
       gradientUnits="userSpaceOnUse"
       xlink:href="#a" />
  </defs>
  <g
     id="g2"
     style="fill:#000000;fill-opacity:1">
    <path
       id="background"
       d="m 2.114,1.057 c -0.59471,0 -1.057,0.46229 -1.057,1.057 V 7.399 H 4.228 V 4.228 H 6.342 V 6.342 H 8.456 V 2.114 h 2.114 v 3.171 h 2.114 v 2.114 h 3.171 V 2.114 c 0,-0.59471 -0.46229,-1.057 -1.057,-1.057 z M 1.057,9.513 v 5.285 c 0,0.59471 0.46229,1.057 1.057,1.057 h 12.684 c 0.59471,0 1.057,-0.46229 1.057,-1.057 V 9.513 h -3.171 v 2.114 H 10.57 v 3.171 H 8.456 V 10.57 H 6.342 v 2.114 H 4.228 V 9.513 Z"
       fill="url(#c)"
       stroke-width="0.045714"
       style="display:inline;fill:#000000;fill-opacity:1;paint-order:markers fill stroke" />
    <!--outline-->
  </g>
</svg>
